15,15
1,7
2,2  2,4  2,6  2,8  2,10  2,12  2,14
3,10
4,2  4,4  4,6  4,8  4,10  4,12  4,14  
5,6
6,2  6,4  6,5  6,6  6,8  6,10  6,12  6,14
7,8  7,13  7,14  7,15
8,2  8,4  8,6  8,7  8,8  8,9  8,10  8,12  8,14
9,1  9,2  9,3  9,8
10,2  10,4  10,6  10,8  10,10  10,11  10,12  10,14
11,10
12,2  12,4  12,6  12,8  12,10  12,12  12,14
13,6
14,2  14,4  14,6  14,8  14,10  14,12  14,14
15,9
